1 10 20
100 200 125
201 210 89
900 1000 174
982 520 179
665 147 145
875 219 179
804 147 171
996 117 179
440 434 116
379 96 144
292 37 128
379 214 144
9 9 20
1345 1345 115
645 645 101
1 1 1
2 2 2
566410 928510 525
125056 250111 443
497831 995660 525
373368 746734 509
205491 410980 449
152656 305310 443
321265 642528 509
919794 983240 507
602370 956220 525
258081 516160 470
26460 52919 340
393122 786242 509
222314 444627 449
112974 225947 386
783300 841587 525
233298 466595 449
